          16
           4
   6.1959326558280736E-011
 PASSED
   147.57519507408142     
  0.12719106674194336     
          16
           4
   6.1959326558280736E-011
 PASSED
   147.27403092384338     
 -0.66958379745483398     
          16
           4
   6.1959326558280736E-011
 PASSED
   149.05407309532166     
   6.6493034362792969E-002
          16
           4
   6.1959326558280736E-011
 PASSED
   146.93515706062317     
  -2.6715040206909180E-002
          16
           4
   6.1959326558280736E-011
 PASSED
   157.73310208320618     
  0.10550212860107422     
