           2
           2
           4
   3.3011815503414255E-011
 PASSED
   145.75411009788513     
  -2.7805089950561523E-002
           2
           2
           4
   3.3011815503414255E-011
 PASSED
   152.41553902626038     
 -0.50701570510864258     
           2
           2
           4
   3.3011815503414255E-011
 PASSED
   152.86925101280212     
   1.4017105102539062E-002
           2
           2
           4
   3.3011815503414255E-011
 PASSED
   155.19040417671204     
  -6.7217350006103516E-003
           2
           2
           4
   3.3011815503414255E-011
 PASSED
   172.39401507377625     
   6.7291259765625000E-003
