           8
           1
           4
   5.7980287238024175E-011
 PASSED
   80.303807020187378     
  -9.4358921051025391E-002
           8
           1
           4
   5.7980287238024175E-011
 PASSED
   73.385324954986572     
 -0.26981782913208008     
           8
           1
           4
   5.7980287238024175E-011
 PASSED
   71.295079946517944     
   3.3531904220581055E-002
           8
           1
           4
   5.7980287238024175E-011
 PASSED
   71.265326976776123     
   2.4056196212768555E-002
           8
           1
           4
   5.7980287238024175E-011
 PASSED
   70.770784139633179     
  -9.4610929489135742E-002
